FunctionName clang_command
Q
":method""GET"
":scheme""https"
":status""200"
":path""/"
"Date""Thu, 21 Dec 2023 07:32:50 GMT"
"Content-Type""text/html; charset=utf-8"
"Transfer-Encoding""chunked"
"Connection""keep-alive"
"CF-Ray""838e6ef81ae24564-ATL"
"CF-Cache-Status""HIT"
"Access-Control-Allow-Origin""*"
"Age""4754"
"Cache-Control""max-age=1200"
"Content-Encoding""gzip"
"ETag""W/"bf18ca3c57a6576e4e1a92d747f2919a""
"Last-Modified""Wed, 04 Oct 2023 16:47:07 GMT"
"Vary""Accept-Encoding"
"Access-Control-Allow-Methods""HEAD, OPTIONS, GET"
"CDN-Cache-Control""public"
"Referrer-Policy""no-referrer-when-downgrade"
"x-amz-id-2""4hDNbFlU3imdIPIuNYzAVrPCsUaVZlQgi07DNlRZ0uMQZgMpj930rqhJnOMfst4LkayFXVji9es="
"x-amz-meta-mtime""1696437923.732657609"
"x-amz-request-id""6TJRP7J6R09DX7KC"
"x-amz-server-side-encryption""AES256"
"X-Backend""web-i-029e75b6c1cb44358"
"X-Content-Type-Options""nosniff"
"X-RTD-Domain""www.sphinx-doc.org"
"X-RTD-Path""/proxito/html/sphinx/master/index.html"
"X-RTD-Project""sphinx"
"X-RTD-Project-Method""custom_domain"
"X-RTD-Version""master"
"X-RTD-Version-Method""path"
"X-Served""Nginx-Proxito-Sendfile"
"Server""cloudflare"
"alt-svc""h3=":443"; ma=86400"
P
":method""GET"
":scheme""https"
":path""/"
"User-Agent""python-requests/2.31.0"
"Accept-Encoding""gzip, deflate"
"Accept""*/*"
"Connection""keep-alive"
Q
":method""GET"
":scheme""https"
":status""200"
":path"""
"Date""Thu, 21 Dec 2023 07:32:50 GMT"
"Content-Type""text/html; charset=utf-8"
"Transfer-Encoding""chunked"
"Connection""keep-alive"
"Last-Modified""Sun, 16 Jul 2023 10:08:55 GMT"
"Access-Control-Allow-Origin""*"
"expires""Thu, 21 Dec 2023 02:42:39 GMT"
"Cache-Control""max-age=600"
"x-proxy-cache""MISS"
"X-GitHub-Request-Id""9D8A:7545:FBEE05:15F93FB:6583A3C7"
"Via""1.1 varnish"
"Age""0"
"X-Served-By""cache-pdk-kpdk1780028-PDK"
"X-Cache""HIT"
"X-Cache-Hits""1"
"X-Timer""S1703143971.834431,VS0,VE20"
"Vary""Accept-Encoding"
"X-Fastly-Request-ID""732d5c6f154df01cd29401579e8e29b25b1506ab"
"CF-Cache-Status""DYNAMIC"
"Report-To""{"endpoints":[{"url":"https://a.nel.cloudflare.com/report/v3?s=j%2B8iKBbQGucYemF5%2Bwbl%2B88I5ifgou7cLV43Kr0yB1%2BMRUIMdYPfBynFz5xwQcBAxdmo8xCdFZWpIMBFt2KiCyKXIh0%2FW902E2E3joAH0cgMIS5vjXTu3wHnxFe99q6HDSIb3X0%3D"}],"group":"cf-nel","max_age":604800}"
"NEL""{"success_fraction":0,"report_to":"cf-nel","max_age":604800}"
"Server""cloudflare"
"CF-RAY""838e6ef9aad24502-ATL"
"Content-Encoding""gzip"
"alt-svc""h3=":443"; ma=86400"
P
":method""GET"
":scheme""https"
":path"""
"User-Agent""python-requests/2.31.0"
"Accept-Encoding""gzip, deflate"
"Accept""*/*"
"Connection""keep-alive"
