FunctionName example_domains
Q
":method""GET"
":scheme""https"
":status""200"
":path""/privacy/policy"
"Date""Thu, 21 Dec 2023 07:32:49 GMT"
"Server""Apache"
"X-RateLimit-Remaining""195"
"X-RateLimit-Requested-Tokens""5"
"X-RateLimit-Burst-Capacity""200"
"X-RateLimit-Replenish-Rate""100"
"Content-Security-Policy""frame-ancestors *.icann.org"
"X-Frame-Options""SAMEORIGIN"
"Cache-Control""max-age=120, public"
"Content-Type""text/html; charset=utf-8"
"ETag""W/"c211c4204183dda0ad1cae24ddeb59e5-gzip""
"Vary""Accept-Encoding"
"Content-Encoding""gzip"
"Referrer-Policy""origin-when-cross-origin"
"Set-Cookie""_new_icann_session=1e3b691b9a985152374c9633c48ab3b0; path=/; secure; HttpOnly"
"Keep-Alive""timeout=2, max=358"
"Connection""Keep-Alive"
"Transfer-Encoding""chunked"
"Strict-Transport-Security""max-age=48211200; preload"
P
":method""GET"
":scheme""https"
":path""/privacy/policy"
"User-Agent""python-requests/2.31.0"
"Accept-Encoding""gzip, deflate"
"Accept""*/*"
"Connection""keep-alive"
Q
":method""GET"
":scheme""https"
":status""200"
":path""/"
"Date""Thu, 21 Dec 2023 07:32:02 GMT"
"Server""Apache"
"X-RateLimit-Remaining""195"
"X-RateLimit-Requested-Tokens""5"
"X-RateLimit-Burst-Capacity""200"
"X-RateLimit-Replenish-Rate""100"
"Content-Security-Policy""frame-ancestors *.icann.org"
"ETag""W/"2a6e8-0+OK0fZ82q7srHx8lA5iOVyWOOg-gzip""
"Vary""Accept-Encoding"
"Content-Encoding""gzip"
"X-Frame-Options""SAMEORIGIN"
"Referrer-Policy""origin-when-cross-origin"
"Age""47"
"Content-Length""23967"
"Keep-Alive""timeout=2, max=358"
"Connection""Keep-Alive"
"Content-Type""text/html; charset=utf-8"
"Strict-Transport-Security""max-age=48211200; preload"
P
":method""GET"
":scheme""https"
":path""/"
"User-Agent""python-requests/2.31.0"
"Accept-Encoding""gzip, deflate"
"Accept""*/*"
"Connection""keep-alive"
Q
":method""GET"
":scheme""https"
":status""200"
":path""/privacy/tos"
"Date""Thu, 21 Dec 2023 07:10:20 GMT"
"Server""Apache"
"X-RateLimit-Remaining""195"
"X-RateLimit-Requested-Tokens""5"
"X-RateLimit-Burst-Capacity""200"
"X-RateLimit-Replenish-Rate""100"
"Content-Security-Policy""frame-ancestors *.icann.org"
"X-Frame-Options""SAMEORIGIN"
"Cache-Control""public, max-age=7200, s-maxage=1800"
"ETag""W/"c696b2398cccc519dbe022083bcb2aea-gzip""
"Vary""Accept-Encoding"
"Content-Encoding""gzip"
"Referrer-Policy""origin-when-cross-origin"
"Age""1351"
"Content-Length""23597"
"Keep-Alive""timeout=2, max=358"
"Connection""Keep-Alive"
"Content-Type""text/html; charset=utf-8"
"Strict-Transport-Security""max-age=48211200; preload"
P
":method""GET"
":scheme""https"
":path""/privacy/tos"
"User-Agent""python-requests/2.31.0"
"Accept-Encoding""gzip, deflate"
"Accept""*/*"
"Connection""keep-alive"
