FunctionName Gophercon
Q
":method""GET"
":scheme""https"
":status""200"
":path""/channel/UCjnIy_GQAuszZurUIO3zg9Q"
"Content-Type""text/html; charset=utf-8"
"X-Content-Type-Options""nosniff"
"Cache-Control""no-cache, no-store, max-age=0, must-revalidate"
"Pragma""no-cache"
"Expires""Mon, 01 Jan 1990 00:00:00 GMT"
"Date""Thu, 21 Dec 2023 07:31:44 GMT"
"X-Frame-Options""SAMEORIGIN"
"Strict-Transport-Security""max-age=31536000"
"Permissions-Policy""ch-ua-arch=*, ch-ua-bitness=*, ch-ua-full-version=*, ch-ua-full-version-list=*, ch-ua-model=*, ch-ua-wow64=*, ch-ua-form-factor=*, ch-ua-platform=*, ch-ua-platform-version=*"
"Report-To""{"group":"youtube_main","max_age":2592000,"endpoints":[{"url":"https://csp.withgoogle.com/csp/report-to/youtube_main"}]}"
"Cross-Origin-Opener-Policy""same-origin-allow-popups; report-to="youtube_main""
"Origin-Trial""AvC9UlR6RDk2crliDsFl66RWLnTbHrDbp+DiY6AYz/PNQ4G4tdUTjrHYr2sghbkhGQAVxb7jaPTHpEVBz0uzQwkAAAB4eyJvcmlnaW4iOiJodHRwczovL3lvdXR1YmUuY29tOjQ0MyIsImZlYXR1cmUiOiJXZWJWaWV3WFJlcXVlc3RlZFdpdGhEZXByZWNhdGlvbiIsImV4cGlyeSI6MTcxOTUzMjc5OSwiaXNTdWJkb21haW4iOnRydWV9"
"P3P""CP="This is not a P3P policy! See http://support.google.com/accounts/answer/151657?hl=en for more info.""
"Content-Encoding""gzip"
"Server""ESF"
"X-XSS-Protection""0"
"Set-Cookie""GPS=1; Domain=.youtube.com; Expires=Thu, 21-Dec-2023 08:01:44 GMT; Path=/; Secure; HttpOnly, YSC=ozHN5sQkmeY; Domain=.youtube.com; Path=/; Secure; HttpOnly; SameSite=none, VISITOR_INFO1_LIVE=ZAU3I3vQ-BE; Domain=.youtube.com; Expires=Tue, 18-Jun-2024 07:31:44 GMT; Path=/; Secure; HttpOnly; SameSite=none, VISITOR_PRIVACY_METADATA=CgJVUxIEGgAgHg%3D%3D; Domain=.youtube.com; Expires=Tue, 18-Jun-2024 07:31:44 GMT; Path=/; Secure; HttpOnly; SameSite=lax"
"Transfer-Encoding""chunked"
P
":method""GET"
":scheme""https"
":path""/channel/UCjnIy_GQAuszZurUIO3zg9Q"
"User-Agent""python-requests/2.31.0"
"Accept-Encoding""gzip, deflate"
"Accept""*/*"
"Connection""keep-alive"
Q
":method""GET"
":scheme""https"
":status""400"
":path""/golangtw"
"date""Thu, 21 Dec 2023 07:31:44 GMT"
"perf""7469935968"
"expiry""Tue, 31 Mar 1981 05:00:00 GMT"
"pragma""no-cache"
"server""tsa_b"
"set-cookie""guest_id_marketing=v1%3A170314390465698407; Max-Age=63072000; Expires=Sat, 20 Dec 2025 07:31:44 GMT; Path=/; Domain=.twitter.com; Secure; SameSite=None, guest_id_ads=v1%3A170314390465698407; Max-Age=63072000; Expires=Sat, 20 Dec 2025 07:31:44 GMT; Path=/; Domain=.twitter.com; Secure; SameSite=None, personalization_id="v1_iYuMf1+SiqN3LJ3DGYTC8w=="; Max-Age=63072000; Expires=Sat, 20 Dec 2025 07:31:44 GMT; Path=/; Domain=.twitter.com; Secure; SameSite=None, guest_id=v1%3A170314390465698407; Max-Age=63072000; Expires=Sat, 20 Dec 2025 07:31:44 GMT; Path=/; Domain=.twitter.com; Secure; SameSite=None, ct0=; Max-Age=-1703143903; Expires=Thu, 01 Jan 1970 00:00:01 GMT; Path=/; Domain=.twitter.com; Secure; SameSite=Lax"
"content-type""text/html; charset=utf-8"
"x-powered-by""Express"
"cache-control""no-cache, no-store, must-revalidate, pre-check=0, post-check=0"
"last-modified""Thu, 21 Dec 2023 07:31:44 GMT"
"x-frame-options""DENY"
"x-transaction-id""9f038a309968f314"
"x-xss-protection""0"
"x-content-type-options""nosniff"
"content-security-policy""connect-src 'self' blob: https://api.x.ai https://api.x.com https://*.pscp.tv https://*.video.pscp.tv https://*.twimg.com https://api.twitter.com https://api.x.com https://api-stream.twitter.com https://api-stream.x.com https://ads-api.twitter.com https://ads-api.x.com https://aa.twitter.com https://aa.x.com https://caps.twitter.com https://caps.x.com https://pay.twitter.com https://pay.x.com https://sentry.io https://ton.twitter.com https://ton.x.com https://ton-staging.atla.twitter.com https://ton-staging.atla.x.com https://ton-staging.pdxa.twitter.com https://ton-staging.pdxa.x.com https://twitter.com https://x.com https://upload.twitter.com https://upload.x.com https://www.google-analytics.com https://accounts.google.com/gsi/status https://accounts.google.com/gsi/log https://checkoutshopper-live.adyen.com wss://*.pscp.tv https://vmap.snappytv.com https://vmapstage.snappytv.com https://vmaprel.snappytv.com https://vmap.grabyo.com https://dhdsnappytv-vh.akamaihd.net https://pdhdsnappytv-vh.akamaihd.net https://mdhdsnappytv-vh.akamaihd.net https://mdhdsnappytv-vh.akamaihd.net https://mpdhdsnappytv-vh.akamaihd.net https://mmdhdsnappytv-vh.akamaihd.net https://mdhdsnappytv-vh.akamaihd.net https://mpdhdsnappytv-vh.akamaihd.net https://mmdhdsnappytv-vh.akamaihd.net https://dwo3ckksxlb0v.cloudfront.net https://media.riffsy.com https://*.giphy.com https://media.tenor.com https://c.tenor.com https://ads-twitter.com https://analytics.twitter.com https://analytics.x.com  ; default-src 'self'; form-action 'self' https://twitter.com https://*.twitter.com https://x.com https://*.x.com; font-src 'self' https://*.twimg.com; frame-src 'self' https://twitter.com https://x.com https://mobile.twitter.com https://mobile.x.com https://pay.twitter.com https://pay.x.com https://cards-frame.twitter.com https://accounts.google.com/ https://client-api.arkoselabs.com/ https://iframe.arkoselabs.com/ https://vaultjs.apideck.com/  https://recaptcha.net/recaptcha/ https://www.google.com/recaptcha/ https://www.gstatic.com/recaptcha/; img-src 'self' blob: data: https://*.cdn.twitter.com https://*.cdn.x.com https://ton.twitter.com https://ton.x.com https://*.twimg.com https://analytics.twitter.com https://analytics.x.com https://cm.g.doubleclick.net https://www.google-analytics.com https://maps.googleapis.com https://www.periscope.tv https://www.pscp.tv https://ads-twitter.com https://ads-api.twitter.com https://ads-api.x.com https://media.riffsy.com https://*.giphy.com https://media.tenor.com https://c.tenor.com https://*.pscp.tv https://*.periscope.tv https://prod-periscope-profile.s3-us-west-2.amazonaws.com https://platform-lookaside.fbsbx.com https://scontent.xx.fbcdn.net https://scontent-sea1-1.xx.fbcdn.net https://*.googleusercontent.com https://t.co/1/i/adsct; manifest-src 'self'; media-src 'self' blob: https://twitter.com https://x.com https://*.twimg.com https://*.vine.co https://*.pscp.tv https://*.video.pscp.tv https://dhdsnappytv-vh.akamaihd.net https://pdhdsnappytv-vh.akamaihd.net https://mdhdsnappytv-vh.akamaihd.net https://mdhdsnappytv-vh.akamaihd.net https://mpdhdsnappytv-vh.akamaihd.net https://mmdhdsnappytv-vh.akamaihd.net https://mdhdsnappytv-vh.akamaihd.net https://mpdhdsnappytv-vh.akamaihd.net https://mmdhdsnappytv-vh.akamaihd.net https://dwo3ckksxlb0v.cloudfront.net; object-src 'none'; script-src 'self' 'unsafe-inline' https://*.twimg.com https://recaptcha.net/recaptcha/ https://www.google.com/recaptcha/ https://www.gstatic.com/recaptcha/ https://client-api.arkoselabs.com/ https://www.google-analytics.com https://twitter.com https://x.com https://accounts.google.com/gsi/client https://appleid.cdn-apple.com/appleauth/static/jsapi/appleid/1/en_US/appleid.auth.js https://static.ads-twitter.com  'nonce-MzA4NzEwMTEtZDAwMS00NzQ4LWJiZjQtNDlmNTI1OWQzOGRm'; style-src 'self' 'unsafe-inline' https://accounts.google.com/gsi/style https://*.twimg.com; worker-src 'self' blob:; report-uri https://twitter.com/i/csp_report?a=O5RXE%3D%3D%3D&ro=false"
"strict-transport-security""max-age=631138519"
"cross-origin-opener-policy""same-origin-allow-popups"
"cross-origin-embedder-policy""unsafe-none"
"content-encoding""gzip"
"content-length""1001"
"x-response-time""14"
"x-connection-hash""9b812c70812afd63738b56a601cfe0697bb2cb9c183ab3d2b5f49d7413da588a"
P
":method""GET"
":scheme""https"
":path""/golangtw"
"User-Agent""python-requests/2.31.0"
"Accept-Encoding""gzip, deflate"
"Accept""*/*"
"Connection""keep-alive"
Q
":method""GET"
":scheme""https"
":status""200"
":path""/GolangTaipeiGathering"
"Vary""Accept-Encoding"
"Content-Encoding""gzip"
"Set-Cookie""sb=4OmDZbhFCNpD16FYV6cq41PN; expires=Fri, 24-Jan-2025 07:31:44 GMT; Max-Age=34560000; path=/; domain=.facebook.com; secure; httponly"
"accept-ch-lifetime""4838400"
"accept-ch""viewport-width,dpr,Sec-CH-Prefers-Color-Scheme,Sec-CH-UA-Full-Version-List,Sec-CH-UA-Platform-Version,Sec-CH-UA-Model"
"Link""<https://www.facebook.com/GolangTaipeiGathering>; rel="canonical""
"reporting-endpoints""default="https://www.facebook.com/ajax/comet_error_reports/?device_level=unknown""
"report-to""{"max_age":259200,"endpoints":[{"url":"https://www.facebook.com/ajax/comet_error_reports/?device_level=unknown"}]}"
"content-security-policy-report-only""default-src data: blob: 'self' https://*.fbsbx.com 'unsafe-inline' *.facebook.com *.fbcdn.net 'unsafe-eval';script-src *.facebook.com *.fbcdn.net *.facebook.net *.google-analytics.com *.google.com 127.0.0.1:* 'unsafe-inline' blob: data: 'self' connect.facebook.net 'unsafe-eval';style-src fonts.googleapis.com *.fbcdn.net data: *.facebook.com 'unsafe-inline';connect-src *.facebook.com facebook.com *.fbcdn.net *.facebook.net wss://*.facebook.com:* wss://*.whatsapp.com:* wss://*.fbcdn.net attachment.fbsbx.com ws://localhost:* blob: *.cdninstagram.com 'self' http://localhost:3103 wss://gateway.facebook.com wss://edge-chat.facebook.com wss://snaptu-d.facebook.com wss://kaios-d.facebook.com/ v.whatsapp.net *.fbsbx.com *.fb.com https://api.mapbox.com https://*.tiles.mapbox.com;font-src data: *.gstatic.com *.facebook.com *.fbcdn.net *.fbsbx.com;img-src *.fbcdn.net *.facebook.com data: https://*.fbsbx.com *.tenor.co media.tenor.com facebook.com *.cdninstagram.com fbsbx.com fbcdn.net *.giphy.com connect.facebook.net *.carriersignal.info blob: android-webview-video-poster: googleads.g.doubleclick.net www.googleadservices.com *.whatsapp.net *.fb.com *.oculuscdn.com;media-src *.cdninstagram.com blob: *.fbcdn.net *.fbsbx.com www.facebook.com *.facebook.com https://*.giphy.com data:;frame-src *.doubleclick.net *.google.com *.facebook.com www.googleadservices.com *.fbsbx.com fbsbx.com data: www.instagram.com *.fbcdn.net https://paywithmybank.com https://sandbox.paywithmybank.com;worker-src *.facebook.com/static_resources/webworker_v1/init_script/ *.facebook.com/static_resources/webworker/init_script/ *.facebook.com/static_resources/sharedworker/init_script/ *.facebook.com/static_resources/webworker/map_libre/ *.facebook.com/static_resources/webworker/map_libre_rtl/ *.facebook.com/sw/ *.facebook.com/sw;block-all-mixed-content;report-uri https://www.facebook.com/csp/reporting/?minimize=0;"
"content-security-policy""default-src data: blob: 'self' https://*.fbsbx.com 'unsafe-inline' *.facebook.com *.fbcdn.net 'unsafe-eval';script-src *.facebook.com *.fbcdn.net *.facebook.net *.google-analytics.com *.google.com 127.0.0.1:* 'unsafe-inline' blob: data: 'self' connect.facebook.net 'unsafe-eval';style-src fonts.googleapis.com *.fbcdn.net data: *.facebook.com 'unsafe-inline';connect-src *.facebook.com facebook.com *.fbcdn.net *.facebook.net wss://*.facebook.com:* wss://*.whatsapp.com:* wss://*.fbcdn.net attachment.fbsbx.com ws://localhost:* blob: *.cdninstagram.com 'self' http://localhost:3103 wss://gateway.facebook.com wss://edge-chat.facebook.com wss://snaptu-d.facebook.com wss://kaios-d.facebook.com/ v.whatsapp.net *.fbsbx.com *.fb.com https://api.mapbox.com https://*.tiles.mapbox.com;font-src data: *.gstatic.com *.facebook.com *.fbcdn.net *.fbsbx.com;img-src *.fbcdn.net *.facebook.com data: https://*.fbsbx.com *.tenor.co media.tenor.com facebook.com *.cdninstagram.com fbsbx.com fbcdn.net *.giphy.com connect.facebook.net *.carriersignal.info blob: android-webview-video-poster: googleads.g.doubleclick.net www.googleadservices.com *.whatsapp.net *.fb.com *.oculuscdn.com;media-src *.cdninstagram.com blob: *.fbcdn.net *.fbsbx.com www.facebook.com *.facebook.com https://*.giphy.com data:;frame-src *.doubleclick.net *.google.com *.facebook.com www.googleadservices.com *.fbsbx.com fbsbx.com data: www.instagram.com *.fbcdn.net https://paywithmybank.com https://sandbox.paywithmybank.com;worker-src blob: *.facebook.com data:;block-all-mixed-content;upgrade-insecure-requests;"
"document-policy""force-load-at-top"
"permissions-policy-report-only""autoplay=(), clipboard-read=(), clipboard-write=(), encrypted-media=(), fullscreen=(), keyboard-map=()"
"permissions-policy""accelerometer=(), ambient-light-sensor=(), bluetooth=(), camera=(self), fullscreen=(self), gamepad=*, geolocation=(self), gyroscope=(), hid=(), idle-detection=(), local-fonts=(), magnetometer=(), microphone=(self), midi=(), otp-credentials=(), payment=(), picture-in-picture=(self), publickey-credentials-get=(self), screen-wake-lock=(), serial=(), usb=(), window-management=()"
"cross-origin-resource-policy""same-origin"
"cross-origin-opener-policy""same-origin-allow-popups"
"Pragma""no-cache"
"Cache-Control""private, no-cache, no-store, must-revalidate"
"Expires""Sat, 01 Jan 2000 00:00:00 GMT"
"X-Content-Type-Options""nosniff"
"X-XSS-Protection""0"
"X-Frame-Options""DENY"
"Strict-Transport-Security""max-age=15552000; preload"
"Content-Type""text/html; charset="utf-8""
"X-FB-Debug""aVg2loyKlyxEumJL3VVoqSt0cdW6CGkzY3EJgY30j0M41J0+7qM7enEaO+gndu5L4kIdmKv6s0/sj1h6HADzFA=="
"Date""Thu, 21 Dec 2023 07:31:44 GMT"
"Alt-Svc""h3=":443"; ma=86400"
"Transfer-Encoding""chunked"
"Connection""keep-alive"
P
":method""GET"
":scheme""https"
":path""/GolangTaipeiGathering"
"User-Agent""python-requests/2.31.0"
"Accept-Encoding""gzip, deflate"
"Accept""*/*"
"Connection""keep-alive"
Q
":method""GET"
":scheme""https"
":status""200"
":path""/C1YivAH9gLDNJCft7"
"Content-Type""text/html; charset=utf-8"
"X-Frame-Options""DENY"
"Vary""Sec-Fetch-Dest, Sec-Fetch-Mode, Sec-Fetch-Site"
"x-auto-login""realm=com.google&args=service%3Dwise%26continue%3Dhttps://docs.google.com/forms/d/e/1FAIpQLScMaJbvvTXgBgW5qL3NfHzd8mC_8IZYBChlnbxTLc2JnDBYlw/viewform?usp%253Dsend_form"
"Link""<https://www.google.com/intl/en-US/drive/>; rel="canonical""
"x-ua-compatible""IE=edge"
"Cache-Control""no-cache, no-store, max-age=0, must-revalidate"
"Pragma""no-cache"
"Expires""Mon, 01 Jan 1990 00:00:00 GMT"
"Date""Thu, 21 Dec 2023 07:31:46 GMT"
"Strict-Transport-Security""max-age=31536000; includeSubDomains"
"Accept-CH""Sec-CH-UA-Arch, Sec-CH-UA-Bitness, Sec-CH-UA-Full-Version, Sec-CH-UA-Full-Version-List, Sec-CH-UA-Model, Sec-CH-UA-WoW64, Sec-CH-UA-Form-Factor, Sec-CH-UA-Platform, Sec-CH-UA-Platform-Version"
"Report-To""{"group":"AccountsSignInUi","max_age":2592000,"endpoints":[{"url":"https://csp.withgoogle.com/csp/report-to/AccountsSignInUi"}]}"
"Cross-Origin-Resource-Policy""same-site"
"Content-Security-Policy""script-src 'nonce-k0PePyRuPueEMdPpUlk5rg' 'unsafe-inline';object-src 'none';base-uri 'self';report-uri /v3/signin/_/AccountsSignInUi/cspreport;worker-src 'self', require-trusted-types-for 'script';report-uri /v3/signin/_/AccountsSignInUi/cspreport"
"Cross-Origin-Opener-Policy-Report-Only""same-origin; report-to="AccountsSignInUi""
"Permissions-Policy""ch-ua-arch=*, ch-ua-bitness=*, ch-ua-full-version=*, ch-ua-full-version-list=*, ch-ua-model=*, ch-ua-wow64=*, ch-ua-form-factor=*, ch-ua-platform=*, ch-ua-platform-version=*"
"Content-Encoding""gzip"
"Server""ESF"
"X-XSS-Protection""0"
"X-Content-Type-Options""nosniff"
"Transfer-Encoding""chunked"
P
":method""GET"
":scheme""https"
":path""/C1YivAH9gLDNJCft7"
"User-Agent""python-requests/2.31.0"
"Accept-Encoding""gzip, deflate"
"Accept""*/*"
"Connection""keep-alive"
"Cookie""NID=511=Obbg5dzioaS6VD0p_CqOEpsvYYADvwHN_rFtz5jvFPtkOzKzdZqOBHsYg34YH9QtA3tIQX9ZAuaNVy3f-JOu6t73_6uLHrkwB6B4I809a71phCDl8EmbS92s5RKNbmWQMwuQ0jc1eSp1V7dqHbkgDRUR5cHoKIiWi3hgBSIziI8; __Host-GAPS=1:250FbSYYxZtbVbNstXJJvKWOe2arzA:q7ivjvMD7Cx3BS5b"
Q
":method""GET"
":scheme""https"
":status""200"
":path""/golangtaipei/"
"Vary""Accept-Encoding"
"Content-Encoding""gzip"
"Set-Cookie""fr=0x0tGspvBFyhW4adl..Blg-ni.9Y.AAA.0.0.Blg-ni.AWXNnr4thU4; expires=Wed, 20-Mar-2024 07:31:46 GMT; Max-Age=7776000; path=/; domain=.facebook.com; secure; httponly, sb=4umDZchKF4m5LE5tvDfcAXxd; expires=Fri, 24-Jan-2025 07:31:46 GMT; Max-Age=34560000; path=/; domain=.facebook.com; secure; httponly"
"reporting-endpoints""default="https://www.facebook.com/ajax/browser_error_reports/?device_level=unknown""
"report-to""{"max_age":259200,"endpoints":[{"url":"https://www.facebook.com/ajax/browser_error_reports/?device_level=unknown"}]}"
"content-security-policy""default-src data: blob: 'self' https://*.fbsbx.com 'unsafe-inline' *.facebook.com *.fbcdn.net 'unsafe-eval';script-src *.facebook.com *.fbcdn.net *.facebook.net *.google-analytics.com *.google.com 127.0.0.1:* 'unsafe-inline' blob: data: 'self' connect.facebook.net 'unsafe-eval';style-src fonts.googleapis.com *.fbcdn.net data: *.facebook.com 'unsafe-inline';connect-src *.facebook.com facebook.com *.fbcdn.net *.facebook.net wss://*.facebook.com:* wss://*.whatsapp.com:* wss://*.fbcdn.net attachment.fbsbx.com ws://localhost:* blob: *.cdninstagram.com 'self' http://localhost:3103 wss://gateway.facebook.com wss://edge-chat.facebook.com wss://snaptu-d.facebook.com wss://kaios-d.facebook.com/ v.whatsapp.net *.fbsbx.com *.fb.com;font-src data: *.gstatic.com *.facebook.com *.fbcdn.net *.fbsbx.com;img-src *.fbcdn.net *.facebook.com data: https://*.fbsbx.com *.tenor.co media.tenor.com facebook.com *.cdninstagram.com fbsbx.com fbcdn.net *.giphy.com connect.facebook.net *.carriersignal.info blob: android-webview-video-poster: googleads.g.doubleclick.net www.googleadservices.com *.whatsapp.net *.fb.com *.oculuscdn.com;media-src *.cdninstagram.com blob: *.fbcdn.net *.fbsbx.com www.facebook.com *.facebook.com https://*.giphy.com data:;frame-src *.doubleclick.net *.google.com *.facebook.com www.googleadservices.com *.fbsbx.com fbsbx.com data: www.instagram.com *.fbcdn.net https://paywithmybank.com https://sandbox.paywithmybank.com;worker-src blob: *.facebook.com data:;block-all-mixed-content;upgrade-insecure-requests;"
"document-policy""force-load-at-top"
"permissions-policy-report-only""autoplay=(), clipboard-read=(), clipboard-write=(), encrypted-media=(), fullscreen=(), keyboard-map=()"
"permissions-policy""accelerometer=(), ambient-light-sensor=(), bluetooth=(), camera=(self), fullscreen=(self), gamepad=*, geolocation=(self), gyroscope=(), hid=(), idle-detection=(), local-fonts=(), magnetometer=(), microphone=(self), midi=(), otp-credentials=(), payment=(), picture-in-picture=(self), publickey-credentials-get=(self), screen-wake-lock=(), serial=(), usb=(), window-management=()"
"cross-origin-resource-policy""same-origin"
"cross-origin-opener-policy""unsafe-none"
"Pragma""no-cache"
"Cache-Control""private, no-cache, no-store, must-revalidate"
"Expires""Sat, 01 Jan 2000 00:00:00 GMT"
"X-Content-Type-Options""nosniff"
"X-XSS-Protection""0"
"X-Frame-Options""DENY"
"Strict-Transport-Security""max-age=15552000; preload"
"Content-Type""text/html; charset="utf-8""
"X-FB-Debug""Ou3JQj+Vb/cbhlJysiLbj6kJB/8dm5ENiNLvxmS1UfbkJ680lF+7Vp9WFux0oeQG9EMHPzvpU5oGGuLY2cgr5Q=="
"Date""Thu, 21 Dec 2023 07:31:46 GMT"
"Alt-Svc""h3=":443"; ma=86400"
"Transfer-Encoding""chunked"
"Connection""keep-alive"
P
":method""GET"
":scheme""https"
":path""/golangtaipei/"
"User-Agent""python-requests/2.31.0"
"Accept-Encoding""gzip, deflate"
"Accept""*/*"
"Connection""keep-alive"
"Cookie""fr=0x0tGspvBFyhW4adl..Blg-ni.k8.AAA.0.0.Blg-ni.AWWzfaIFrGQ"
Q
":method""GET"
":scheme""https"
":status""200"
":path""/golangtw"
"Server""nginx/1.18.0"
"Date""Thu, 21 Dec 2023 07:31:46 GMT"
"Content-Type""text/html; charset=utf-8"
"Content-Length""4386"
"Connection""keep-alive"
"Set-Cookie""stel_ssid=b169cb2416996c759d_4590525132025609195; expires=Fri, 22 Dec 2023 07:31:46 GMT; path=/; samesite=None; secure; HttpOnly"
"Pragma""no-cache"
"Cache-control""no-store"
"X-Frame-Options""ALLOW-FROM https://web.telegram.org"
"Content-Security-Policy""frame-ancestors https://web.telegram.org"
"Content-Encoding""gzip"
"Strict-Transport-Security""max-age=35768000"
P
":method""GET"
":scheme""https"
":path""/golangtw"
"User-Agent""python-requests/2.31.0"
"Accept-Encoding""gzip, deflate"
"Accept""*/*"
"Connection""keep-alive"
Q
":method""GET"
":scheme""https"
":status""200"
":path""/golangtw"
"Server""GitHub.com"
"Date""Thu, 21 Dec 2023 07:31:47 GMT"
"Content-Type""text/html; charset=utf-8"
"Vary""X-Requested-With, X-PJAX-Container, Turbo-Frame, Turbo-Visit, Accept-Encoding, Accept, X-Requested-With"
"ETag""W/"841d6ca999db719d0112541ad656a53f""
"Cache-Control""max-age=0, private, must-revalidate"
"Strict-Transport-Security""max-age=31536000; includeSubdomains; preload"
"X-Frame-Options""deny"
"X-Content-Type-Options""nosniff"
"X-XSS-Protection""0"
"Referrer-Policy""origin-when-cross-origin, strict-origin-when-cross-origin"
"Content-Security-Policy""default-src 'none'; base-uri 'self'; child-src github.com/assets-cdn/worker/ gist.github.com/assets-cdn/worker/; connect-src 'self' uploads.github.com www.githubstatus.com collector.github.com raw.githubusercontent.com api.github.com github-cloud.s3.amazonaws.com github-production-repository-file-5c1aeb.s3.amazonaws.com github-production-upload-manifest-file-7fdce7.s3.amazonaws.com github-production-user-asset-6210df.s3.amazonaws.com cdn.optimizely.com logx.optimizely.com/v1/events api.githubcopilot.com objects-origin.githubusercontent.com *.actions.githubusercontent.com wss://*.actions.githubusercontent.com productionresultssa0.blob.core.windows.net/ productionresultssa1.blob.core.windows.net/ productionresultssa2.blob.core.windows.net/ productionresultssa3.blob.core.windows.net/ productionresultssa4.blob.core.windows.net/ productionresultssa5.blob.core.windows.net/ productionresultssa6.blob.core.windows.net/ productionresultssa7.blob.core.windows.net/ productionresultssa8.blob.core.windows.net/ productionresultssa9.blob.core.windows.net/ github-production-repository-image-32fea6.s3.amazonaws.com github-production-release-asset-2e65be.s3.amazonaws.com insights.github.com wss://alive.github.com; font-src github.githubassets.com; form-action 'self' github.com gist.github.com objects-origin.githubusercontent.com; frame-ancestors 'none'; frame-src viewscreen.githubusercontent.com notebooks.githubusercontent.com support.github.com; img-src 'self' data: github.githubassets.com media.githubusercontent.com camo.githubusercontent.com identicons.github.com avatars.githubusercontent.com github-cloud.s3.amazonaws.com objects.githubusercontent.com secured-user-images.githubusercontent.com/ user-images.githubusercontent.com/ private-user-images.githubusercontent.com opengraph.githubassets.com github-production-user-asset-6210df.s3.amazonaws.com customer-stories-feed.github.com spotlights-feed.github.com objects-origin.githubusercontent.com *.githubusercontent.com; manifest-src 'self'; media-src github.com user-images.githubusercontent.com/ secured-user-images.githubusercontent.com/ private-user-images.githubusercontent.com github-production-user-asset-6210df.s3.amazonaws.com gist.github.com; script-src github.githubassets.com; style-src 'unsafe-inline' github.githubassets.com; upgrade-insecure-requests; worker-src github.com/assets-cdn/worker/ gist.github.com/assets-cdn/worker/"
"Content-Encoding""gzip"
"Set-Cookie""_gh_sess=vx8IEMMZVIsqMRQAJtyA7V0k7hTeOuyaFJNmlyuPS3yLNAM7kpfNfkKhk6OAwff8Pg0prVZbTzajLXR5MLmqZA33px1dDprDyOcV7VHPCMAwxyt%2FNUnTTZEqVTXcI3NbAaLytV59YM5LYdr4g%2FaUkXCSnpYAwuF5PrwngodGEjeWQM0g5r%2BB0PUJfsNahgutMMn8EniZW9bkmj2CHrLwq11XI%2FbEV0Bmg01fWixvNHzJVwgzYn3CIic%2FNyx%2BxquyryJEB3Ly42m6TjoVYH6ANA%3D%3D--XpZ7dCmG2nTPjPYt--M0dLpB5HcU5jLzeV2NJLyA%3D%3D; Path=/; HttpOnly; Secure; SameSite=Lax, _octo=GH1.1.1063092516.1703143907; Path=/; Domain=github.com; Expires=Sat, 21 Dec 2024 07:31:47 GMT; Secure; SameSite=Lax, logged_in=no; Path=/; Domain=github.com; Expires=Sat, 21 Dec 2024 07:31:47 GMT; HttpOnly; Secure; SameSite=Lax"
"Accept-Ranges""bytes"
"Transfer-Encoding""chunked"
"X-GitHub-Request-Id""D046:1468:2CC68AA:410388B:6583E9E3"
P
":method""GET"
":scheme""https"
":path""/golangtw"
"User-Agent""python-requests/2.31.0"
"Accept-Encoding""gzip, deflate"
"Accept""*/*"
"Connection""keep-alive"
Q
":method""GET"
":scheme""https"
":status""200"
":path""/golang-taipei-meetup"
"Connection""keep-alive"
"Content-Length""24248"
"content-encoding""gzip"
"content-type""text/html; charset=utf-8"
"ETag""W/"VXkH6DF_7U4iRicADCsNZGW2SKKXjkUo""
"x-ttl""86400.000"
"Accept-Ranges""bytes"
"Date""Thu, 21 Dec 2023 07:31:48 GMT"
"Age""0"
"X-Cache""MISS, MISS"
"X-Cache-Hits""0, 0"
"Vary""Accept-Encoding"
"X-Geo""east"
"X-Geo-Gql-Beta""east"
"Set-Cookie""SIFT_SESSION_ID=f0b507ec-c699-460d-b72a-5c3a65da9887; expires=Thu, 21 Dec 2023 11:31:48 GMT; path=/; domain=.meetup.com; SameSite=Strict; Secure"
"Cache-Control""no-cache, max-age=0"
"Content-Security-Policy""base-uri 'self'; connect-src * blob: data: *.crazyegg.com ; default-src 'self' *.meetup.com *.dev.meetup.com:8001 www.sjwoe.com *.crazyegg.com blob: ; font-src * data:; frame-ancestors 'self'; frame-src *; img-src * data: blob: *.crazyegg.com ;media-src *.meetup.com *.dev.meetup.com:8001 https://secure.meetupstatic.com www.sjwoe.com *.sendbird.com https://sendbird-us-3.s3.amazonaws.com; script-src * 'unsafe-eval' 'unsafe-inline' *.crazyegg.com; style-src * 'unsafe-inline' *.crazyegg.com ; object-src 'none'"
"X-Frame-Options""SAMEORIGIN"
"X-XSS-Protection""1; mode=block"
"X-Content-Type-Options""nosniff"
"Strict-Transport-Security""max-age=7776000"
P
":method""GET"
":scheme""https"
":path""/golang-taipei-meetup"
"User-Agent""python-requests/2.31.0"
"Accept-Encoding""gzip, deflate"
"Accept""*/*"
"Connection""keep-alive"
"Cookie""MEETUP_BROWSER_ID=id=0ed5b48d-bfe9-43cf-bf71-4be3ee5b8261; MEETUP_TRACK=id=040fa4cb-499a-4aba-9e55-4b1a856d8b9f"
